{
    "statusCode": 200,
    "responseBody": {
        "responseInfo": {
            "reasons": {
                "code": "0000",
                "type": 0,
                "msg": "操作成功"
            }
        },
        "data": [
            {
                "id":"1234",
                "name":"测试1"
            },
            {
                "id":"1234",
                "name":"测试2"
            }
        ],
        "total": "100",
        "pagesize": 10,
        "total_pages": 30,
        "page": 5
    }
}